^C:\Users\ronio\source\repos\Poker\Debug\Poker.exe
C:\Users\ronio\source\repos\Poker\Poker\Debug\vcpkg.applocal.log
C:\Users\ronio\source\repos\Poker\Debug\sfml-graphics-d-2.dll
C:\Users\ronio\source\repos\Poker\Debug\sfml-window-d-2.dll
C:\Users\ronio\source\repos\Poker\Debug\sfml-system-d-2.dll
C:\Users\ronio\source\repos\Poker\Debug\freetyped.dll
C:\Users\ronio\source\repos\Poker\Debug\zlibd1.dll
C:\Users\ronio\source\repos\Poker\Debug\libbz2d.dll
C:\Users\ronio\source\repos\Poker\Debug\libpng16d.dll
C:\Users\ronio\source\repos\Poker\Debug\jpeg62.dll
^C:\Users\ronio\source\repos\Poker\Debug\Poker.exe
C:\Users\ronio\source\repos\Poker\Poker\Debug\vcpkg.applocal.log
C:\Users\ronio\source\repos\Poker\Debug\sfml-graphics-d-2.dll
C:\Users\ronio\source\repos\Poker\Debug\sfml-window-d-2.dll
C:\Users\ronio\source\repos\Poker\Debug\sfml-system-d-2.dll
C:\Users\ronio\source\repos\Poker\Debug\freetyped.dll
C:\Users\ronio\source\repos\Poker\Debug\zlibd1.dll
C:\Users\ronio\source\repos\Poker\Debug\libbz2d.dll
C:\Users\ronio\source\repos\Poker\Debug\libpng16d.dll
C:\Users\ronio\source\repos\Poker\Debug\jpeg62.dll
^C:\Users\ronio\source\repos\Poker\Debug\Poker.exe
C:\Users\ronio\source\repos\Poker\Poker\Debug\vcpkg.applocal.log
C:\Users\ronio\source\repos\Poker\Debug\sfml-graphics-d-2.dll
C:\Users\ronio\source\repos\Poker\Debug\sfml-window-d-2.dll
C:\Users\ronio\source\repos\Poker\Debug\sfml-system-d-2.dll
C:\Users\ronio\source\repos\Poker\Debug\freetyped.dll
C:\Users\ronio\source\repos\Poker\Debug\zlibd1.dll
C:\Users\ronio\source\repos\Poker\Debug\libbz2d.dll
C:\Users\ronio\source\repos\Poker\Debug\libpng16d.dll
C:\Users\ronio\source\repos\Poker\Debug\jpeg62.dll
^C:\Users\ronio\source\repos\Poker\Debug\Poker.exe
C:\Users\ronio\source\repos\Poker\Poker\Debug\vcpkg.applocal.log
C:\Users\ronio\source\repos\Poker\Debug\sfml-graphics-d-2.dll
C:\Users\ronio\source\repos\Poker\Debug\sfml-window-d-2.dll
C:\Users\ronio\source\repos\Poker\Debug\sfml-system-d-2.dll
C:\Users\ronio\source\repos\Poker\Debug\freetyped.dll
C:\Users\ronio\source\repos\Poker\Debug\zlibd1.dll
C:\Users\ronio\source\repos\Poker\Debug\libbz2d.dll
C:\Users\ronio\source\repos\Poker\Debug\libpng16d.dll
C:\Users\ronio\source\repos\Poker\Debug\jpeg62.dll
^C:\Users\ronio\source\repos\Poker\Debug\Poker.exe
C:\Users\ronio\source\repos\Poker\Poker\Debug\vcpkg.applocal.log
C:\Users\ronio\source\repos\Poker\Debug\sfml-graphics-d-2.dll
C:\Users\ronio\source\repos\Poker\Debug\sfml-window-d-2.dll
C:\Users\ronio\source\repos\Poker\Debug\sfml-system-d-2.dll
C:\Users\ronio\source\repos\Poker\Debug\freetyped.dll
C:\Users\ronio\source\repos\Poker\Debug\zlibd1.dll
C:\Users\ronio\source\repos\Poker\Debug\libbz2d.dll
C:\Users\ronio\source\repos\Poker\Debug\libpng16d.dll
C:\Users\ronio\source\repos\Poker\Debug\jpeg62.dll
^C:\Users\ronio\source\repos\Poker\Debug\Poker.exe
C:\Users\ronio\source\repos\Poker\Poker\Debug\vcpkg.applocal.log
C:\Users\ronio\source\repos\Poker\Debug\sfml-graphics-d-2.dll
C:\Users\ronio\source\repos\Poker\Debug\sfml-window-d-2.dll
C:\Users\ronio\source\repos\Poker\Debug\sfml-system-d-2.dll
C:\Users\ronio\source\repos\Poker\Debug\freetyped.dll
C:\Users\ronio\source\repos\Poker\Debug\zlibd1.dll
C:\Users\ronio\source\repos\Poker\Debug\libbz2d.dll
C:\Users\ronio\source\repos\Poker\Debug\libpng16d.dll
C:\Users\ronio\source\repos\Poker\Debug\jpeg62.dll
^C:\Users\ronio\source\repos\Poker\Debug\Poker.exe
C:\Users\ronio\source\repos\Poker\Poker\Debug\vcpkg.applocal.log
C:\Users\ronio\source\repos\Poker\Debug\sfml-graphics-d-2.dll
C:\Users\ronio\source\repos\Poker\Debug\sfml-window-d-2.dll
C:\Users\ronio\source\repos\Poker\Debug\sfml-system-d-2.dll
C:\Users\ronio\source\repos\Poker\Debug\freetyped.dll
C:\Users\ronio\source\repos\Poker\Debug\zlibd1.dll
C:\Users\ronio\source\repos\Poker\Debug\libbz2d.dll
C:\Users\ronio\source\repos\Poker\Debug\libpng16d.dll
C:\Users\ronio\source\repos\Poker\Debug\jpeg62.dll
^C:\Users\ronio\source\repos\Poker\Debug\Poker.exe
C:\Users\ronio\source\repos\Poker\Poker\Debug\vcpkg.applocal.log
C:\Users\ronio\source\repos\Poker\Debug\sfml-graphics-d-2.dll
C:\Users\ronio\source\repos\Poker\Debug\sfml-window-d-2.dll
C:\Users\ronio\source\repos\Poker\Debug\sfml-system-d-2.dll
C:\Users\ronio\source\repos\Poker\Debug\freetyped.dll
C:\Users\ronio\source\repos\Poker\Debug\zlibd1.dll
C:\Users\ronio\source\repos\Poker\Debug\libbz2d.dll
C:\Users\ronio\source\repos\Poker\Debug\libpng16d.dll
C:\Users\ronio\source\repos\Poker\Debug\jpeg62.dll
^C:\Users\ronio\source\repos\Poker\Debug\Poker.exe
C:\Users\ronio\source\repos\Poker\Poker\Debug\vcpkg.applocal.log
C:\Users\ronio\source\repos\Poker\Debug\sfml-graphics-d-2.dll
C:\Users\ronio\source\repos\Poker\Debug\sfml-window-d-2.dll
C:\Users\ronio\source\repos\Poker\Debug\sfml-system-d-2.dll
C:\Users\ronio\source\repos\Poker\Debug\freetyped.dll
C:\Users\ronio\source\repos\Poker\Debug\zlibd1.dll
C:\Users\ronio\source\repos\Poker\Debug\libbz2d.dll
C:\Users\ronio\source\repos\Poker\Debug\libpng16d.dll
C:\Users\ronio\source\repos\Poker\Debug\jpeg62.dll
^C:\Users\ronio\source\repos\Poker\Debug\Poker.exe
C:\Users\ronio\source\repos\Poker\Poker\Debug\vcpkg.applocal.log
C:\Users\ronio\source\repos\Poker\Debug\sfml-graphics-d-2.dll
C:\Users\ronio\source\repos\Poker\Debug\sfml-window-d-2.dll
C:\Users\ronio\source\repos\Poker\Debug\sfml-system-d-2.dll
C:\Users\ronio\source\repos\Poker\Debug\freetyped.dll
C:\Users\ronio\source\repos\Poker\Debug\zlibd1.dll
C:\Users\ronio\source\repos\Poker\Debug\libbz2d.dll
C:\Users\ronio\source\repos\Poker\Debug\libpng16d.dll
C:\Users\ronio\source\repos\Poker\Debug\jpeg62.dll
^C:\Users\ronio\source\repos\Poker\Debug\Poker.exe
C:\Users\ronio\source\repos\Poker\Poker\Debug\vcpkg.applocal.log
C:\Users\ronio\source\repos\Poker\Debug\sfml-graphics-d-2.dll
C:\Users\ronio\source\repos\Poker\Debug\sfml-window-d-2.dll
C:\Users\ronio\source\repos\Poker\Debug\sfml-system-d-2.dll
C:\Users\ronio\source\repos\Poker\Debug\freetyped.dll
C:\Users\ronio\source\repos\Poker\Debug\zlibd1.dll
C:\Users\ronio\source\repos\Poker\Debug\libbz2d.dll
C:\Users\ronio\source\repos\Poker\Debug\libpng16d.dll
C:\Users\ronio\source\repos\Poker\Debug\jpeg62.dll
^C:\Users\ronio\source\repos\Poker\Debug\Poker.exe
C:\Users\ronio\source\repos\Poker\Poker\Debug\vcpkg.applocal.log
C:\Users\ronio\source\repos\Poker\Debug\sfml-graphics-d-2.dll
C:\Users\ronio\source\repos\Poker\Debug\sfml-window-d-2.dll
C:\Users\ronio\source\repos\Poker\Debug\sfml-system-d-2.dll
C:\Users\ronio\source\repos\Poker\Debug\freetyped.dll
C:\Users\ronio\source\repos\Poker\Debug\zlibd1.dll
C:\Users\ronio\source\repos\Poker\Debug\libbz2d.dll
C:\Users\ronio\source\repos\Poker\Debug\libpng16d.dll
C:\Users\ronio\source\repos\Poker\Debug\jpeg62.dll
^C:\Users\ronio\source\repos\Poker\Debug\Poker.exe
C:\Users\ronio\source\repos\Poker\Poker\Debug\vcpkg.applocal.log
C:\Users\ronio\source\repos\Poker\Debug\sfml-graphics-d-2.dll
C:\Users\ronio\source\repos\Poker\Debug\sfml-window-d-2.dll
C:\Users\ronio\source\repos\Poker\Debug\sfml-system-d-2.dll
C:\Users\ronio\source\repos\Poker\Debug\freetyped.dll
C:\Users\ronio\source\repos\Poker\Debug\zlibd1.dll
C:\Users\ronio\source\repos\Poker\Debug\libbz2d.dll
C:\Users\ronio\source\repos\Poker\Debug\libpng16d.dll
C:\Users\ronio\source\repos\Poker\Debug\jpeg62.dll
^C:\Users\ronio\source\repos\Poker\Debug\Poker.exe
C:\Users\ronio\source\repos\Poker\Poker\Debug\vcpkg.applocal.log
C:\Users\ronio\source\repos\Poker\Debug\sfml-graphics-d-2.dll
C:\Users\ronio\source\repos\Poker\Debug\sfml-window-d-2.dll
C:\Users\ronio\source\repos\Poker\Debug\sfml-system-d-2.dll
C:\Users\ronio\source\repos\Poker\Debug\freetyped.dll
C:\Users\ronio\source\repos\Poker\Debug\zlibd1.dll
C:\Users\ronio\source\repos\Poker\Debug\libbz2d.dll
C:\Users\ronio\source\repos\Poker\Debug\libpng16d.dll
C:\Users\ronio\source\repos\Poker\Debug\jpeg62.dll
^C:\Users\ronio\source\repos\Poker\Debug\Poker.exe
C:\Users\ronio\source\repos\Poker\Poker\Debug\vcpkg.applocal.log
C:\Users\ronio\source\repos\Poker\Debug\sfml-graphics-d-2.dll
C:\Users\ronio\source\repos\Poker\Debug\sfml-window-d-2.dll
C:\Users\ronio\source\repos\Poker\Debug\sfml-system-d-2.dll
C:\Users\ronio\source\repos\Poker\Debug\freetyped.dll
C:\Users\ronio\source\repos\Poker\Debug\zlibd1.dll
C:\Users\ronio\source\repos\Poker\Debug\libbz2d.dll
C:\Users\ronio\source\repos\Poker\Debug\libpng16d.dll
C:\Users\ronio\source\repos\Poker\Debug\jpeg62.dll
^C:\Users\ronio\source\repos\Poker\Debug\Poker.exe
C:\Users\ronio\source\repos\Poker\Poker\Debug\vcpkg.applocal.log
C:\Users\ronio\source\repos\Poker\Debug\sfml-graphics-d-2.dll
C:\Users\ronio\source\repos\Poker\Debug\sfml-window-d-2.dll
C:\Users\ronio\source\repos\Poker\Debug\sfml-system-d-2.dll
C:\Users\ronio\source\repos\Poker\Debug\freetyped.dll
C:\Users\ronio\source\repos\Poker\Debug\zlibd1.dll
C:\Users\ronio\source\repos\Poker\Debug\libbz2d.dll
C:\Users\ronio\source\repos\Poker\Debug\libpng16d.dll
C:\Users\ronio\source\repos\Poker\Debug\jpeg62.dll
^C:\Users\ronio\source\repos\Poker\Debug\Poker.exe
C:\Users\ronio\source\repos\Poker\Poker\Debug\vcpkg.applocal.log
C:\Users\ronio\source\repos\Poker\Debug\sfml-graphics-d-2.dll
C:\Users\ronio\source\repos\Poker\Debug\sfml-window-d-2.dll
C:\Users\ronio\source\repos\Poker\Debug\sfml-system-d-2.dll
C:\Users\ronio\source\repos\Poker\Debug\freetyped.dll
C:\Users\ronio\source\repos\Poker\Debug\zlibd1.dll
C:\Users\ronio\source\repos\Poker\Debug\libbz2d.dll
C:\Users\ronio\source\repos\Poker\Debug\libpng16d.dll
C:\Users\ronio\source\repos\Poker\Debug\jpeg62.dll
^C:\Users\ronio\source\repos\Poker\Debug\Poker.exe
C:\Users\ronio\source\repos\Poker\Poker\Debug\vcpkg.applocal.log
C:\Users\ronio\source\repos\Poker\Debug\sfml-graphics-d-2.dll
C:\Users\ronio\source\repos\Poker\Debug\sfml-window-d-2.dll
C:\Users\ronio\source\repos\Poker\Debug\sfml-system-d-2.dll
C:\Users\ronio\source\repos\Poker\Debug\freetyped.dll
C:\Users\ronio\source\repos\Poker\Debug\zlibd1.dll
C:\Users\ronio\source\repos\Poker\Debug\libbz2d.dll
C:\Users\ronio\source\repos\Poker\Debug\libpng16d.dll
C:\Users\ronio\source\repos\Poker\Debug\jpeg62.dll
^C:\Users\ronio\source\repos\Poker\Debug\Poker.exe
C:\Users\ronio\source\repos\Poker\Poker\Debug\vcpkg.applocal.log
C:\Users\ronio\source\repos\Poker\Debug\sfml-graphics-d-2.dll
C:\Users\ronio\source\repos\Poker\Debug\sfml-window-d-2.dll
C:\Users\ronio\source\repos\Poker\Debug\sfml-system-d-2.dll
C:\Users\ronio\source\repos\Poker\Debug\freetyped.dll
C:\Users\ronio\source\repos\Poker\Debug\zlibd1.dll
C:\Users\ronio\source\repos\Poker\Debug\libbz2d.dll
C:\Users\ronio\source\repos\Poker\Debug\libpng16d.dll
C:\Users\ronio\source\repos\Poker\Debug\jpeg62.dll
^C:\Users\ronio\source\repos\Poker\Debug\Poker.exe
C:\Users\ronio\source\repos\Poker\Poker\Debug\vcpkg.applocal.log
C:\Users\ronio\source\repos\Poker\Debug\sfml-graphics-d-2.dll
C:\Users\ronio\source\repos\Poker\Debug\sfml-window-d-2.dll
C:\Users\ronio\source\repos\Poker\Debug\sfml-system-d-2.dll
C:\Users\ronio\source\repos\Poker\Debug\freetyped.dll
C:\Users\ronio\source\repos\Poker\Debug\zlibd1.dll
C:\Users\ronio\source\repos\Poker\Debug\libbz2d.dll
C:\Users\ronio\source\repos\Poker\Debug\libpng16d.dll
C:\Users\ronio\source\repos\Poker\Debug\jpeg62.dll
^C:\Users\ronio\source\repos\Poker\Debug\Poker.exe
C:\Users\ronio\source\repos\Poker\Poker\Debug\vcpkg.applocal.log
C:\Users\ronio\source\repos\Poker\Debug\sfml-graphics-d-2.dll
C:\Users\ronio\source\repos\Poker\Debug\sfml-window-d-2.dll
C:\Users\ronio\source\repos\Poker\Debug\sfml-system-d-2.dll
C:\Users\ronio\source\repos\Poker\Debug\freetyped.dll
C:\Users\ronio\source\repos\Poker\Debug\zlibd1.dll
C:\Users\ronio\source\repos\Poker\Debug\libbz2d.dll
C:\Users\ronio\source\repos\Poker\Debug\libpng16d.dll
C:\Users\ronio\source\repos\Poker\Debug\jpeg62.dll
^C:\Users\ronio\source\repos\Poker\Debug\Poker.exe
C:\Users\ronio\source\repos\Poker\Poker\Debug\vcpkg.applocal.log
C:\Users\ronio\source\repos\Poker\Debug\sfml-graphics-d-2.dll
C:\Users\ronio\source\repos\Poker\Debug\sfml-window-d-2.dll
C:\Users\ronio\source\repos\Poker\Debug\sfml-system-d-2.dll
C:\Users\ronio\source\repos\Poker\Debug\freetyped.dll
C:\Users\ronio\source\repos\Poker\Debug\zlibd1.dll
C:\Users\ronio\source\repos\Poker\Debug\libbz2d.dll
C:\Users\ronio\source\repos\Poker\Debug\libpng16d.dll
C:\Users\ronio\source\repos\Poker\Debug\jpeg62.dll
^C:\Users\ronio\source\repos\Poker\Debug\Poker.exe
C:\Users\ronio\source\repos\Poker\Poker\Debug\vcpkg.applocal.log
C:\Users\ronio\source\repos\Poker\Debug\sfml-graphics-d-2.dll
C:\Users\ronio\source\repos\Poker\Debug\sfml-window-d-2.dll
C:\Users\ronio\source\repos\Poker\Debug\sfml-system-d-2.dll
C:\Users\ronio\source\repos\Poker\Debug\freetyped.dll
C:\Users\ronio\source\repos\Poker\Debug\zlibd1.dll
C:\Users\ronio\source\repos\Poker\Debug\libbz2d.dll
C:\Users\ronio\source\repos\Poker\Debug\libpng16d.dll
C:\Users\ronio\source\repos\Poker\Debug\jpeg62.dll
^C:\Users\ronio\source\repos\Poker\Debug\Poker.exe
C:\Users\ronio\source\repos\Poker\Poker\Debug\vcpkg.applocal.log
C:\Users\ronio\source\repos\Poker\Debug\sfml-graphics-d-2.dll
C:\Users\ronio\source\repos\Poker\Debug\sfml-window-d-2.dll
C:\Users\ronio\source\repos\Poker\Debug\sfml-system-d-2.dll
C:\Users\ronio\source\repos\Poker\Debug\freetyped.dll
C:\Users\ronio\source\repos\Poker\Debug\zlibd1.dll
C:\Users\ronio\source\repos\Poker\Debug\libbz2d.dll
C:\Users\ronio\source\repos\Poker\Debug\libpng16d.dll
C:\Users\ronio\source\repos\Poker\Debug\jpeg62.dll
^C:\Users\ronio\source\repos\Poker\Debug\Poker.exe
C:\Users\ronio\source\repos\Poker\Poker\Debug\vcpkg.applocal.log
C:\Users\ronio\source\repos\Poker\Debug\sfml-graphics-d-2.dll
C:\Users\ronio\source\repos\Poker\Debug\sfml-window-d-2.dll
C:\Users\ronio\source\repos\Poker\Debug\sfml-system-d-2.dll
C:\Users\ronio\source\repos\Poker\Debug\freetyped.dll
C:\Users\ronio\source\repos\Poker\Debug\zlibd1.dll
C:\Users\ronio\source\repos\Poker\Debug\libbz2d.dll
C:\Users\ronio\source\repos\Poker\Debug\libpng16d.dll
C:\Users\ronio\source\repos\Poker\Debug\jpeg62.dll
^C:\Users\ronio\source\repos\Poker\Debug\Poker.exe
C:\Users\ronio\source\repos\Poker\Poker\Debug\vcpkg.applocal.log
C:\Users\ronio\source\repos\Poker\Debug\sfml-graphics-d-2.dll
C:\Users\ronio\source\repos\Poker\Debug\sfml-window-d-2.dll
C:\Users\ronio\source\repos\Poker\Debug\sfml-system-d-2.dll
C:\Users\ronio\source\repos\Poker\Debug\freetyped.dll
C:\Users\ronio\source\repos\Poker\Debug\zlibd1.dll
C:\Users\ronio\source\repos\Poker\Debug\libbz2d.dll
C:\Users\ronio\source\repos\Poker\Debug\libpng16d.dll
C:\Users\ronio\source\repos\Poker\Debug\jpeg62.dll
^C:\Users\ronio\source\repos\Poker\Debug\Poker.exe
C:\Users\ronio\source\repos\Poker\Poker\Debug\vcpkg.applocal.log
C:\Users\ronio\source\repos\Poker\Debug\sfml-graphics-d-2.dll
C:\Users\ronio\source\repos\Poker\Debug\sfml-window-d-2.dll
C:\Users\ronio\source\repos\Poker\Debug\sfml-system-d-2.dll
C:\Users\ronio\source\repos\Poker\Debug\freetyped.dll
C:\Users\ronio\source\repos\Poker\Debug\zlibd1.dll
C:\Users\ronio\source\repos\Poker\Debug\libbz2d.dll
C:\Users\ronio\source\repos\Poker\Debug\libpng16d.dll
C:\Users\ronio\source\repos\Poker\Debug\jpeg62.dll
^C:\Users\ronio\source\repos\Poker\Debug\Poker.exe
C:\Users\ronio\source\repos\Poker\Poker\Debug\vcpkg.applocal.log
C:\Users\ronio\source\repos\Poker\Debug\sfml-graphics-d-2.dll
C:\Users\ronio\source\repos\Poker\Debug\sfml-window-d-2.dll
C:\Users\ronio\source\repos\Poker\Debug\sfml-system-d-2.dll
C:\Users\ronio\source\repos\Poker\Debug\freetyped.dll
C:\Users\ronio\source\repos\Poker\Debug\zlibd1.dll
C:\Users\ronio\source\repos\Poker\Debug\libbz2d.dll
C:\Users\ronio\source\repos\Poker\Debug\libpng16d.dll
C:\Users\ronio\source\repos\Poker\Debug\jpeg62.dll
^C:\Users\ronio\source\repos\Poker\Debug\Poker.exe
C:\Users\ronio\source\repos\Poker\Poker\Debug\vcpkg.applocal.log
C:\Users\ronio\source\repos\Poker\Debug\sfml-graphics-d-2.dll
C:\Users\ronio\source\repos\Poker\Debug\sfml-window-d-2.dll
C:\Users\ronio\source\repos\Poker\Debug\sfml-system-d-2.dll
C:\Users\ronio\source\repos\Poker\Debug\freetyped.dll
C:\Users\ronio\source\repos\Poker\Debug\zlibd1.dll
C:\Users\ronio\source\repos\Poker\Debug\libbz2d.dll
C:\Users\ronio\source\repos\Poker\Debug\libpng16d.dll
C:\Users\ronio\source\repos\Poker\Debug\jpeg62.dll
^C:\Users\ronio\source\repos\Poker\Debug\Poker.exe
C:\Users\ronio\source\repos\Poker\Poker\Debug\vcpkg.applocal.log
C:\Users\ronio\source\repos\Poker\Debug\sfml-graphics-d-2.dll
C:\Users\ronio\source\repos\Poker\Debug\sfml-window-d-2.dll
C:\Users\ronio\source\repos\Poker\Debug\sfml-system-d-2.dll
C:\Users\ronio\source\repos\Poker\Debug\freetyped.dll
C:\Users\ronio\source\repos\Poker\Debug\zlibd1.dll
C:\Users\ronio\source\repos\Poker\Debug\libbz2d.dll
C:\Users\ronio\source\repos\Poker\Debug\libpng16d.dll
C:\Users\ronio\source\repos\Poker\Debug\jpeg62.dll
^C:\Users\ronio\source\repos\Poker\Debug\Poker.exe
C:\Users\ronio\source\repos\Poker\Poker\Debug\vcpkg.applocal.log
C:\Users\ronio\source\repos\Poker\Debug\sfml-graphics-d-2.dll
C:\Users\ronio\source\repos\Poker\Debug\sfml-window-d-2.dll
C:\Users\ronio\source\repos\Poker\Debug\sfml-system-d-2.dll
C:\Users\ronio\source\repos\Poker\Debug\freetyped.dll
C:\Users\ronio\source\repos\Poker\Debug\zlibd1.dll
C:\Users\ronio\source\repos\Poker\Debug\libbz2d.dll
C:\Users\ronio\source\repos\Poker\Debug\libpng16d.dll
C:\Users\ronio\source\repos\Poker\Debug\jpeg62.dll
^C:\Users\ronio\source\repos\Poker\Debug\Poker.exe
C:\Users\ronio\source\repos\Poker\Poker\Debug\vcpkg.applocal.log
C:\Users\ronio\source\repos\Poker\Debug\sfml-graphics-d-2.dll
C:\Users\ronio\source\repos\Poker\Debug\sfml-window-d-2.dll
C:\Users\ronio\source\repos\Poker\Debug\sfml-system-d-2.dll
C:\Users\ronio\source\repos\Poker\Debug\freetyped.dll
C:\Users\ronio\source\repos\Poker\Debug\zlibd1.dll
C:\Users\ronio\source\repos\Poker\Debug\libbz2d.dll
C:\Users\ronio\source\repos\Poker\Debug\libpng16d.dll
C:\Users\ronio\source\repos\Poker\Debug\jpeg62.dll
^C:\Users\ronio\source\repos\Poker\Debug\Poker.exe
C:\Users\ronio\source\repos\Poker\Poker\Debug\vcpkg.applocal.log
C:\Users\ronio\source\repos\Poker\Debug\sfml-graphics-d-2.dll
C:\Users\ronio\source\repos\Poker\Debug\sfml-window-d-2.dll
C:\Users\ronio\source\repos\Poker\Debug\sfml-system-d-2.dll
C:\Users\ronio\source\repos\Poker\Debug\freetyped.dll
C:\Users\ronio\source\repos\Poker\Debug\zlibd1.dll
C:\Users\ronio\source\repos\Poker\Debug\libbz2d.dll
C:\Users\ronio\source\repos\Poker\Debug\libpng16d.dll
C:\Users\ronio\source\repos\Poker\Debug\jpeg62.dll
^C:\Users\ronio\source\repos\Poker\Debug\Poker.exe
C:\Users\ronio\source\repos\Poker\Poker\Debug\vcpkg.applocal.log
C:\Users\ronio\source\repos\Poker\Debug\sfml-graphics-d-2.dll
C:\Users\ronio\source\repos\Poker\Debug\sfml-window-d-2.dll
C:\Users\ronio\source\repos\Poker\Debug\sfml-system-d-2.dll
C:\Users\ronio\source\repos\Poker\Debug\freetyped.dll
C:\Users\ronio\source\repos\Poker\Debug\zlibd1.dll
C:\Users\ronio\source\repos\Poker\Debug\libbz2d.dll
C:\Users\ronio\source\repos\Poker\Debug\libpng16d.dll
C:\Users\ronio\source\repos\Poker\Debug\jpeg62.dll
^C:\Users\ronio\source\repos\Poker\Debug\Poker.exe
C:\Users\ronio\source\repos\Poker\Poker\Debug\vcpkg.applocal.log
C:\Users\ronio\source\repos\Poker\Debug\sfml-graphics-d-2.dll
C:\Users\ronio\source\repos\Poker\Debug\sfml-window-d-2.dll
C:\Users\ronio\source\repos\Poker\Debug\sfml-system-d-2.dll
C:\Users\ronio\source\repos\Poker\Debug\freetyped.dll
C:\Users\ronio\source\repos\Poker\Debug\zlibd1.dll
C:\Users\ronio\source\repos\Poker\Debug\libbz2d.dll
C:\Users\ronio\source\repos\Poker\Debug\libpng16d.dll
C:\Users\ronio\source\repos\Poker\Debug\jpeg62.dll
^C:\Users\ronio\source\repos\Poker\Debug\Poker.exe
C:\Users\ronio\source\repos\Poker\Poker\Debug\vcpkg.applocal.log
C:\Users\ronio\source\repos\Poker\Debug\sfml-graphics-d-2.dll
C:\Users\ronio\source\repos\Poker\Debug\sfml-window-d-2.dll
C:\Users\ronio\source\repos\Poker\Debug\sfml-system-d-2.dll
C:\Users\ronio\source\repos\Poker\Debug\freetyped.dll
C:\Users\ronio\source\repos\Poker\Debug\zlibd1.dll
C:\Users\ronio\source\repos\Poker\Debug\libbz2d.dll
C:\Users\ronio\source\repos\Poker\Debug\libpng16d.dll
C:\Users\ronio\source\repos\Poker\Debug\jpeg62.dll
^C:\Users\ronio\source\repos\Poker\Debug\Poker.exe
C:\Users\ronio\source\repos\Poker\Poker\Debug\vcpkg.applocal.log
C:\Users\ronio\source\repos\Poker\Debug\sfml-graphics-d-2.dll
C:\Users\ronio\source\repos\Poker\Debug\sfml-window-d-2.dll
C:\Users\ronio\source\repos\Poker\Debug\sfml-system-d-2.dll
C:\Users\ronio\source\repos\Poker\Debug\freetyped.dll
C:\Users\ronio\source\repos\Poker\Debug\zlibd1.dll
C:\Users\ronio\source\repos\Poker\Debug\libbz2d.dll
C:\Users\ronio\source\repos\Poker\Debug\libpng16d.dll
C:\Users\ronio\source\repos\Poker\Debug\jpeg62.dll
^C:\Users\ronio\source\repos\Poker\Debug\Poker.exe
C:\Users\ronio\source\repos\Poker\Poker\Debug\vcpkg.applocal.log
C:\Users\ronio\source\repos\Poker\Debug\sfml-graphics-d-2.dll
C:\Users\ronio\source\repos\Poker\Debug\sfml-window-d-2.dll
C:\Users\ronio\source\repos\Poker\Debug\sfml-system-d-2.dll
C:\Users\ronio\source\repos\Poker\Debug\freetyped.dll
C:\Users\ronio\source\repos\Poker\Debug\zlibd1.dll
C:\Users\ronio\source\repos\Poker\Debug\libbz2d.dll
C:\Users\ronio\source\repos\Poker\Debug\libpng16d.dll
C:\Users\ronio\source\repos\Poker\Debug\jpeg62.dll
^C:\Users\ronio\source\repos\Poker\Debug\Poker.exe
C:\Users\ronio\source\repos\Poker\Poker\Debug\vcpkg.applocal.log
C:\Users\ronio\source\repos\Poker\Debug\sfml-graphics-d-2.dll
C:\Users\ronio\source\repos\Poker\Debug\sfml-window-d-2.dll
C:\Users\ronio\source\repos\Poker\Debug\sfml-system-d-2.dll
C:\Users\ronio\source\repos\Poker\Debug\freetyped.dll
C:\Users\ronio\source\repos\Poker\Debug\zlibd1.dll
C:\Users\ronio\source\repos\Poker\Debug\libbz2d.dll
C:\Users\ronio\source\repos\Poker\Debug\libpng16d.dll
C:\Users\ronio\source\repos\Poker\Debug\jpeg62.dll
^C:\Users\ronio\source\repos\Poker\Debug\Poker.exe
C:\Users\ronio\source\repos\Poker\Poker\Debug\vcpkg.applocal.log
C:\Users\ronio\source\repos\Poker\Debug\sfml-graphics-d-2.dll
C:\Users\ronio\source\repos\Poker\Debug\sfml-window-d-2.dll
C:\Users\ronio\source\repos\Poker\Debug\sfml-system-d-2.dll
C:\Users\ronio\source\repos\Poker\Debug\freetyped.dll
C:\Users\ronio\source\repos\Poker\Debug\zlibd1.dll
C:\Users\ronio\source\repos\Poker\Debug\libbz2d.dll
C:\Users\ronio\source\repos\Poker\Debug\libpng16d.dll
C:\Users\ronio\source\repos\Poker\Debug\jpeg62.dll
^C:\Users\ronio\source\repos\Poker\Debug\Poker.exe
C:\Users\ronio\source\repos\Poker\Poker\Debug\vcpkg.applocal.log
C:\Users\ronio\source\repos\Poker\Debug\sfml-graphics-d-2.dll
C:\Users\ronio\source\repos\Poker\Debug\sfml-window-d-2.dll
C:\Users\ronio\source\repos\Poker\Debug\sfml-system-d-2.dll
C:\Users\ronio\source\repos\Poker\Debug\freetyped.dll
C:\Users\ronio\source\repos\Poker\Debug\zlibd1.dll
C:\Users\ronio\source\repos\Poker\Debug\libbz2d.dll
C:\Users\ronio\source\repos\Poker\Debug\libpng16d.dll
C:\Users\ronio\source\repos\Poker\Debug\jpeg62.dll
^C:\Users\ronio\source\repos\Poker\Debug\Poker.exe
C:\Users\ronio\source\repos\Poker\Poker\Debug\vcpkg.applocal.log
C:\Users\ronio\source\repos\Poker\Debug\sfml-graphics-d-2.dll
C:\Users\ronio\source\repos\Poker\Debug\sfml-window-d-2.dll
C:\Users\ronio\source\repos\Poker\Debug\sfml-system-d-2.dll
C:\Users\ronio\source\repos\Poker\Debug\freetyped.dll
C:\Users\ronio\source\repos\Poker\Debug\zlibd1.dll
C:\Users\ronio\source\repos\Poker\Debug\libbz2d.dll
C:\Users\ronio\source\repos\Poker\Debug\libpng16d.dll
C:\Users\ronio\source\repos\Poker\Debug\jpeg62.dll
^C:\Users\ronio\source\repos\Poker\Debug\Poker.exe
C:\Users\ronio\source\repos\Poker\Poker\Debug\vcpkg.applocal.log
C:\Users\ronio\source\repos\Poker\Debug\sfml-graphics-d-2.dll
C:\Users\ronio\source\repos\Poker\Debug\sfml-window-d-2.dll
C:\Users\ronio\source\repos\Poker\Debug\sfml-system-d-2.dll
C:\Users\ronio\source\repos\Poker\Debug\freetyped.dll
C:\Users\ronio\source\repos\Poker\Debug\zlibd1.dll
C:\Users\ronio\source\repos\Poker\Debug\libbz2d.dll
C:\Users\ronio\source\repos\Poker\Debug\libpng16d.dll
C:\Users\ronio\source\repos\Poker\Debug\jpeg62.dll
^C:\Users\ronio\source\repos\Poker\Debug\Poker.exe
C:\Users\ronio\source\repos\Poker\Poker\Debug\vcpkg.applocal.log
C:\Users\ronio\source\repos\Poker\Debug\sfml-graphics-d-2.dll
C:\Users\ronio\source\repos\Poker\Debug\sfml-window-d-2.dll
C:\Users\ronio\source\repos\Poker\Debug\sfml-system-d-2.dll
C:\Users\ronio\source\repos\Poker\Debug\freetyped.dll
C:\Users\ronio\source\repos\Poker\Debug\zlibd1.dll
C:\Users\ronio\source\repos\Poker\Debug\libbz2d.dll
C:\Users\ronio\source\repos\Poker\Debug\libpng16d.dll
C:\Users\ronio\source\repos\Poker\Debug\jpeg62.dll
^C:\Users\ronio\source\repos\Poker\Debug\Poker.exe
C:\Users\ronio\source\repos\Poker\Poker\Debug\vcpkg.applocal.log
C:\Users\ronio\source\repos\Poker\Debug\sfml-graphics-d-2.dll
C:\Users\ronio\source\repos\Poker\Debug\sfml-window-d-2.dll
C:\Users\ronio\source\repos\Poker\Debug\sfml-system-d-2.dll
C:\Users\ronio\source\repos\Poker\Debug\freetyped.dll
C:\Users\ronio\source\repos\Poker\Debug\zlibd1.dll
C:\Users\ronio\source\repos\Poker\Debug\libbz2d.dll
C:\Users\ronio\source\repos\Poker\Debug\libpng16d.dll
C:\Users\ronio\source\repos\Poker\Debug\jpeg62.dll
^C:\Users\ronio\source\repos\Poker\Debug\Poker.exe
C:\Users\ronio\source\repos\Poker\Poker\Debug\vcpkg.applocal.log
C:\Users\ronio\source\repos\Poker\Debug\sfml-graphics-d-2.dll
C:\Users\ronio\source\repos\Poker\Debug\sfml-window-d-2.dll
C:\Users\ronio\source\repos\Poker\Debug\sfml-system-d-2.dll
C:\Users\ronio\source\repos\Poker\Debug\freetyped.dll
C:\Users\ronio\source\repos\Poker\Debug\zlibd1.dll
C:\Users\ronio\source\repos\Poker\Debug\libbz2d.dll
C:\Users\ronio\source\repos\Poker\Debug\libpng16d.dll
C:\Users\ronio\source\repos\Poker\Debug\jpeg62.dll
^C:\Users\ronio\source\repos\Poker\Debug\Poker.exe
C:\Users\ronio\source\repos\Poker\Poker\Debug\vcpkg.applocal.log
C:\Users\ronio\source\repos\Poker\Debug\sfml-graphics-d-2.dll
C:\Users\ronio\source\repos\Poker\Debug\sfml-window-d-2.dll
C:\Users\ronio\source\repos\Poker\Debug\sfml-system-d-2.dll
C:\Users\ronio\source\repos\Poker\Debug\freetyped.dll
C:\Users\ronio\source\repos\Poker\Debug\zlibd1.dll
C:\Users\ronio\source\repos\Poker\Debug\libbz2d.dll
C:\Users\ronio\source\repos\Poker\Debug\libpng16d.dll
C:\Users\ronio\source\repos\Poker\Debug\jpeg62.dll
